graph G {
    label="Anforderungen: Mindmap";
    Webseite -- Impressum;
    Webseite -- Datenschutzerklärung;
    Webseite -- "Über mich";
    Webseite -- Blog;
    Webseite -- i18n;
    Webseite -- Projekte;
    Webseite -- Kontakt;
    Blog -- Blogeintrag;
    Blog -- CMS;
    Blogeintrag -- Titel;
    Blogeintrag -- Text;
    Blogeintrag -- Titelbild;
    Blogeintrag -- Galerie;
    Galerie -- Bilder;
}