<?xml version="1.0" standalone="no"?>
<!DOCTYPE svg PUBLIC "-//W3C//DTD SVG 20010904//EN"
 "http://www.w3.org/TR/2001/REC-SVG-20010904/DTD/svg10.dtd">
<svg version="1.0" xmlns="http://www.w3.org/2000/svg"
 width="700.000000pt" height="700.000000pt" viewBox="0 0 700.000000 700.000000"
 preserveAspectRatio="xMidYMid meet">
<metadata>
Created by potrace 1.14, written by Peter Selinger 2001-2017
</metadata>
<g transform="translate(0.000000,700.000000) scale(0.100000,-0.100000)"
fill="#000000" stroke="none">
<path d="M6653 5045 c-71 -20 -136 -54 -210 -109 -76 -58 -134 -120 -281 -305
-224 -282 -345 -371 -544 -402 -87 -13 -151 -7 -381 37 -211 40 -316 44 -432
14 -221 -56 -394 -193 -700 -555 -325 -384 -444 -460 -960 -615 -465 -140
-652 -247 -790 -455 -73 -109 -117 -213 -203 -482 -133 -409 -239 -565 -471
-686 -161 -84 -325 -123 -701 -167 -398 -46 -541 -87 -735 -208 -52 -32 -167
-144 -211 -203 l-34 -47 0 -431 0 -431 3500 0 3500 0 -2 2498 -3 2497 -60 29
c-73 35 -198 45 -282 21z"/>
</g>
</svg>
